{
  "name": "work_order_history",
  "base": "PersistedModel",
  "idInjection": true,
  "options": {
    "validateUpsert": true
  },
  "properties": {
    "work_order_id": {
      "type": "number",
      "required": true
    },
    "status": {
      "type": "string",
      "required": true
    },
    "picture": {
      "type": "string"
    },
    "note": {
      "type": "string"
    },
    "date": {
      "type": "date",
      "required": true,
      "default": "$now"
    }
  },
  "validations": [],
  "relations": {},
  "acls": [],
  "methods": {}
}
