{
  "mysql": {
    "host": "localhost",
    "port": 0,
    "url": "",
    "database": "amsdb",
    "password": "admin",
    "name": "mysql",
    "user": "root",
    "connector": "mysql"
  },
  "file": {
    "name": "file",
    "connector": "loopback-component-storage",
    "provider": "filesystem",
    "root": "/opt/ems-app/images"
  }
}
